Division,WeightClassKg,Place,Name,Team,BodyweightKg,Best3SquatKg,Best3BenchKg,Best3DeadliftKg,TotalKg,Equipment,Event,Sex
Boys,55.79,1,Jason Ayers,Lampasas,51.82,145.15,77.11,145.15,367.41,Single-ply,SBD,M
Boys,51.71,2,Marlwin Perez,Brownwood,51.37,117.93,68.04,136.08,322.05,Single-ply,SBD,M
Boys,51.71,3,Julian Coronado,San Saba,51.6,111.13,63.5,131.54,306.17,Single-ply,SBD,M
Boys,51.71,4,Angel Sandoval,Brady,51.71,115.67,52.16,129.27,297.1,Single-ply,SBD,M
Boys,51.71,5,Peyton Johnson #3,San Saba,51.6,95.25,58.97,120.2,274.42,Single-ply,SBD,M
Boys,51.71,6,Isaac Perez,Brady,51.26,95.25,54.43,117.93,267.62,Single-ply,SBD,M
Boys,51.71,7,Garrett Schwertner,Brady,48.99,79.38,38.56,90.72,208.65,Single-ply,SBD,M
Boys,51.71,8,Russell Pankratz,Comfort,47.97,68.04,47.63,83.91,199.58,Single-ply,SBD,M
Boys,51.71,DQ,Henry Ramos,Sonora,50.24,104.33,56.7,,,Single-ply,SBD,M
Boys,55.79,1,Lucas Diaz,Santa Anna,55.68,140.61,72.57,170.1,383.29,Single-ply,SBD,M
Boys,55.79,2,Dalton Dewveall,Llano,54.32,136.08,74.84,149.69,360.61,Single-ply,SBD,M
Boys,59.87,3,Chase Turner,San Saba,56.02,122.47,68.04,145.15,335.66,Single-ply,SBD,M
Boys,55.79,4,Johnathan Flores,Lampasas,53.98,113.4,70.31,147.42,331.12,Single-ply,SBD,M
Boys,55.79,DQ,Jacob Zepeda,Sterling City,55,,,,,Single-ply,SBD,M
Boys,67.13,1,Jon Brown #2,Burnet,60.1,149.69,92.99,181.44,424.11,Single-ply,SBD,M
Boys,59.87,2,Dorian Jimenez,Brady,59.65,163.29,83.91,170.1,417.3,Single-ply,SBD,M
Boys,67.13,3,Jesse Franco,San Saba,60.1,140.61,92.99,172.37,405.97,Single-ply,SBD,M
Boys,59.87,4,Derrick McBee,Brady,59.6,145.15,86.18,170.1,401.43,Single-ply,SBD,M
Boys,59.87,5,Dillon Hughes,Sterling City,58.63,147.42,88.45,158.76,394.63,Single-ply,SBD,M
Boys,59.87,6,Sean Gonzales,Ballinger,59.08,136.08,92.99,154.22,383.29,Single-ply,SBD,M
Boys,67.13,7,Jose Leon,Brady,59.92,140.61,72.57,158.76,371.95,Single-ply,SBD,M
Boys,59.87,8,Manny Villanueva,San Angelo Central,58.4,151.95,77.11,140.61,369.68,Single-ply,SBD,M
Boys,59.87,9,Anthony Jones,San Angelo Grape Creek,58.85,124.74,72.57,136.08,333.39,Single-ply,SBD,M
Boys,59.87,10,Jake Everett,Sterling City,59.08,108.86,61.23,124.74,294.84,Single-ply,SBD,M
Boys,67.13,11,Jared Everett,Sterling City,59.99,111.13,61.23,120.2,292.57,Single-ply,SBD,M
Boys,59.87,DQ,Jose Briggs,Burnet,57.95,92.99,,,,Single-ply,SBD,M
Boys,59.87,DQ,Luke Argo,Lampasas,59.53,,,,,Single-ply,SBD,M
Boys,74.84,1,Knijan Bell-Williams,Lampasas,67.36,185.97,117.93,201.85,505.76,Single-ply,SBD,M
Boys,74.84,2,Christian Rodriguez #10,Llano,67.36,183.7,108.86,174.63,467.2,Single-ply,SBD,M
Boys,67.13,3,Robert Sauceda,San Angelo Central,67.13,174.63,104.33,165.56,444.52,Single-ply,SBD,M
Boys,67.13,4,Adrian Pena,Ballinger,64.52,170.1,88.45,154.22,412.77,Single-ply,SBD,M
Boys,67.13,5,Efren Morales,San Angelo Central,62.26,154.22,92.99,161.03,408.23,Single-ply,SBD,M
Boys,67.13,6,Salvador Lopez,Sonora,64.41,147.42,83.91,165.56,396.89,Single-ply,SBD,M
Boys,67.13,7,John Heflin,Llano,62.03,158.76,77.11,154.22,390.09,Single-ply,SBD,M
Boys,67.13,8,Dylan Perdue,San Angelo Central,66.34,117.93,102.06,170.1,390.09,Single-ply,SBD,M
Boys,67.13,9,Jason Faulkner,Comfort,64.3,122.47,90.72,154.22,367.41,Single-ply,SBD,M
Boys,67.13,10,John Watson,San Saba,65.2,120.2,83.91,154.22,358.34,Single-ply,SBD,M
Boys,67.13,11,Tristan Duque,Brownwood,67.02,111.13,111.13,136.08,358.34,Single-ply,SBD,M
Boys,67.13,12,Clay Anthony,Comfort,65.43,131.54,72.57,145.15,349.27,Single-ply,SBD,M
Boys,67.13,13,Xavier Armenta,Brownwood,64.18,136.08,74.84,136.08,347,Single-ply,SBD,M
Boys,67.13,14,Kade Wharten,Sterling City,64.75,127.01,65.77,140.61,333.39,Single-ply,SBD,M
Boys,67.13,15,Tommy Smith,Burnet,62.48,108.86,72.57,122.47,303.91,Single-ply,SBD,M
Boys,67.13,16,Fabricio Bienbeno,Lampasas,64.75,120.2,54.43,124.74,299.37,Single-ply,SBD,M
Boys,67.13,17,Juan Tobias,San Saba,64.3,90.72,63.5,108.86,263.08,Single-ply,SBD,M
Boys,67.13,DQ,Nathan Keese,Lampasas,66.79,142.88,,,,Single-ply,SBD,M
Boys,67.13,DQ,Trevor Penny,Llano,67.02,167.83,111.13,,,Single-ply,SBD,M
Boys,67.13,DQ,Mitchell McGuire,Sterling City,65.88,,,,,Single-ply,SBD,M
Boys,67.13,DQ,Felix Guerra,Sonora,63.16,,,,,Single-ply,SBD,M
Boys,67.13,DQ,Jarron Kirkland,Brady,60.33,122.47,63.5,,,Single-ply,SBD,M
Boys,74.84,1,Avery Gary,Lampasas,72.46,176.9,127.01,201.85,505.76,Single-ply,SBD,M
Boys,82.1,2,Hunter Wilkinson,Lampasas,75.07,181.44,111.13,197.31,489.88,Single-ply,SBD,M
Boys,74.84,3,Brock Foster,Burnet,74.5,172.37,102.06,195.04,469.47,Single-ply,SBD,M
Boys,74.84,4,Logan Kilpatlick,Sterling City,73.37,181.44,90.72,181.44,453.59,Single-ply,SBD,M
Boys,74.84,5,Mark DeLeon,Brady,67.68,163.29,106.59,181.44,451.32,Single-ply,SBD,M
Boys,74.84,6,Chase Walston,Brady,70.31,163.29,95.25,161.03,419.57,Single-ply,SBD,M
Boys,74.84,7,John Trevino,San Angelo Central,69.17,136.08,90.72,165.56,392.36,Single-ply,SBD,M
Boys,74.84,8,Imanuel Martinez,Brady,71.4,136.08,77.11,167.83,381.02,Single-ply,SBD,M
Boys,74.84,9,Stone Sealy,San Saba,68.27,127.01,70.31,151.95,349.27,Single-ply,SBD,M
Boys,74.84,10,Dakota Pratt,Burnet,68.83,113.4,77.11,127.01,317.51,Single-ply,SBD,M
Boys,74.84,DQ,Abram Ruiz,Brady,69.4,,,,,Single-ply,SBD,M
Boys,74.84,DQ,Gary Flores,Brady,73.48,206.38,,,,Single-ply,SBD,M
Boys,74.84,DQ,Ryder Clegg,San Saba,68.83,145.15,72.57,,,Single-ply,SBD,M
Boys,74.84,DQ,Rafael Mendoza,Sonora,71.1,136.08,83.91,,,Single-ply,SBD,M
Boys,82.1,1,Rikkie Ruschenberg,San Angelo Grape Creek,78.36,249.48,115.67,199.58,564.72,Single-ply,SBD,M
Boys,82.1,2,Steven Kirk,Ballinger,78.47,219.99,120.2,192.78,532.97,Single-ply,SBD,M
Boys,82.1,3,Kevin O'Dell,San Angelo Grape Creek,79.72,176.9,111.13,181.44,469.47,Single-ply,SBD,M
Boys,82.1,4,Mackey Gibson,Brownwood,77.68,179.17,102.06,167.83,449.06,Single-ply,SBD,M
Boys,82.1,5,Shay Tompkins,Brownwood,81.08,192.78,88.45,167.83,449.06,Single-ply,SBD,M
Boys,82.1,6,Mason Campbell,Burnet,76.09,156.49,97.52,163.29,417.3,Single-ply,SBD,M
Boys,82.1,7,Clint Ringstaff,Burnet,76.77,156.49,92.99,147.42,396.89,Single-ply,SBD,M
Boys,82.1,8,Kaleb Bell,Burnet,75.52,163.29,83.91,136.08,383.29,Single-ply,SBD,M
Boys,82.1,9,Miguel Leon,Brady,81.19,129.27,90.72,149.69,369.68,Single-ply,SBD,M
Boys,82.1,10,Lane Gilley,Brownwood,77.79,136.08,83.91,136.08,356.07,Single-ply,SBD,M
Boys,82.1,11,Joe Zapata,Brownwood,77.68,115.67,83.91,127.01,326.59,Single-ply,SBD,M
Boys,82.1,12,John Berry #3,Brady,77.11,115.67,63.5,127.01,306.17,Single-ply,SBD,M
Boys,82.1,13,Lane Coleman,Brady,76.29,108.86,52.16,113.4,274.42,Single-ply,SBD,M
Boys,82.1,DQ,John Geis,Brownwood,76.77,156.49,,,,Single-ply,SBD,M
Boys,89.81,1,Jared McHazlett,Burnet,89.7,208.65,113.4,235.87,557.92,Single-ply,SBD,M
Boys,89.81,2,Caleb Penny,Llano,88.79,233.6,131.54,190.51,555.65,Single-ply,SBD,M
Boys,89.81,3,Jason Lenoir,Marble Falls,85.82,208.65,113.4,192.78,514.83,Single-ply,SBD,M
Boys,89.81,4,Weston McIntire,Lampasas,88.34,183.7,120.2,208.65,512.56,Single-ply,SBD,M
Boys,89.81,5,Cullen Ferrill,Burnet,87.43,204.12,111.13,195.04,510.29,Single-ply,SBD,M
Boys,89.81,6,Devonte Evetts,Brady,89.49,183.7,120.2,204.12,508.02,Single-ply,SBD,M
Boys,99.79,7,Blas Guerro,San Angelo Central,89.92,195.04,113.4,199.58,508.02,Single-ply,SBD,M
Boys,89.81,8,Isaiah Regeon,Brady,89.58,183.7,106.59,176.9,467.2,Single-ply,SBD,M
Boys,89.81,9,Colin Mayne,Llano,86.75,163.29,102.06,165.56,430.91,Single-ply,SBD,M
Boys,89.81,10,Stratt Stiles,Llano,85.84,156.49,88.45,154.22,399.16,Single-ply,SBD,M
Boys,89.81,11,Jontavion Jones,Brownwood,88.11,149.69,83.91,158.76,392.36,Single-ply,SBD,M
Boys,89.81,12,Carson Benedict,Brownwood,87.66,138.35,83.91,158.76,381.02,Single-ply,SBD,M
Boys,99.79,1,Jaylen Bocknite,Brownwood,97.64,226.8,136.08,226.8,589.67,Single-ply,SBD,M
Boys,99.79,2,DeVante Stredic,Brownwood,95.03,208.65,122.47,226.8,557.92,Single-ply,SBD,M
Boys,99.79,3,Alex Perez,San Angelo Grape Creek,96.84,226.8,113.4,208.65,548.85,Single-ply,SBD,M
Boys,99.79,4,Jarrett Thornley,Burnet,94.01,208.65,127.01,199.58,535.24,Single-ply,SBD,M
Boys,99.79,5,Topher McGhee,Lampasas,94.23,183.7,115.67,204.12,503.49,Single-ply,SBD,M
Boys,99.79,6,Jaime Hernandez #4,Brownwood,91.51,181.44,104.33,185.97,471.74,Single-ply,SBD,M
Boys,99.79,7,Eric Walker,Burnet,92.87,167.83,102.06,190.51,460.4,Single-ply,SBD,M
Boys,99.79,8,Eric Yescas,Lampasas,94.01,158.76,81.65,158.76,399.16,Single-ply,SBD,M
Boys,99.79,DQ,Justin Price,Brownwood,96.5,158.76,,,,Single-ply,SBD,M
Boys,99.79,DQ,Erwin Rodas,Brady,91.31,163.29,,,,Single-ply,SBD,M
Boys,109.77,1,Kirkland Weaver,Brady,105.69,272.16,124.74,210.92,607.81,Single-ply,SBD,M
Boys,109.77,2,Adrian Hernandez #2,San Angelo Grape Creek,104.21,242.67,124.74,222.26,589.67,Single-ply,SBD,M
Boys,109.77,3,Christopher Saldirar,Burnet,108.64,235.87,136.08,195.04,566.99,Single-ply,SBD,M
Boys,109.77,4,Nate Newton,San Angelo Central,103.76,226.8,129.27,208.65,564.72,Single-ply,SBD,M
Boys,109.77,5,Ethan Patlan,Sonora,101.94,199.58,158.76,199.58,557.92,Single-ply,SBD,M
Boys,109.77,6,Tailor Hunt,San Angelo Central,102.17,235.87,111.13,188.24,535.24,Single-ply,SBD,M
Boys,109.77,7,Zach McLeskey,Burnet,106.48,181.44,113.4,195.04,489.88,Single-ply,SBD,M
Boys,109.77,8,Juan Mungia,Llano,103.65,161.03,111.13,170.1,442.25,Single-ply,SBD,M
Boys,109.77,9,Christopher Rangel,Brownwood,100.58,158.76,72.57,163.29,394.63,Single-ply,SBD,M
Boys,109.77,10,Roy Del Toro,Brownwood,106.93,145.15,63.5,149.69,358.34,Single-ply,SBD,M
Boys,109.77,11,Bailey Roach,Brady,105.23,124.74,79.38,136.08,340.19,Single-ply,SBD,M
Boys,109.77,12,Bradley Keeling,Burnet,105.69,102.06,63.5,136.08,301.64,Single-ply,SBD,M
Boys,109.77,DQ,Angel DeLuna,Sonora,105.12,238.14,117.93,,,Single-ply,SBD,M
Boys,109.77,DQ,Ryan Lewis,Brownwood,104.55,226.8,111.13,,,Single-ply,SBD,M
Boys,124.74,1,Antonio Perez,San Angelo Grape Creek,119.18,208.65,163.29,213.19,585.13,Single-ply,SBD,M
Boys,124.74,2,Izzy Robeson,Comfort,123.94,226.8,142.88,208.65,578.33,Single-ply,SBD,M
Boys,124.74,3,Daren Hernandez,San Angelo Central,115.89,226.8,129.27,217.72,573.79,Single-ply,SBD,M
Boys,124.74,4,Dustin Hodges,Brady,121.56,226.8,131.54,190.51,548.85,Single-ply,SBD,M
Boys,124.74,5,Sam Kahutek,Marble Falls,122.36,204.12,129.27,192.78,526.17,Single-ply,SBD,M
Boys,124.74,6,Aaron Cook,Burnet,115.1,158.76,102.06,158.76,419.57,Single-ply,SBD,M
Boys,124.74,7,Vegas Jennings,Lampasas,112.26,165.56,77.11,161.03,403.7,Single-ply,SBD,M
Boys,124.74,DQ,Sergio Rivero,San Angelo Central,117.37,190.51,,,,Single-ply,SBD,M
Boys,124.74+,1,Jake Dibble,Lampasas,152.18,254.01,140.61,229.06,623.69,Single-ply,SBD,M
Boys,124.74+,2,Jacob Reed,Burnet,140.95,238.14,145.15,206.38,589.67,Single-ply,SBD,M
Boys,124.74+,3,Noah Ramirez,Comfort,127.69,229.06,115.67,219.99,564.72,Single-ply,SBD,M
Boys,124.74+,4,Chase Fry,Marble Falls,143.79,217.72,136.08,204.12,557.92,Single-ply,SBD,M
Boys,124.74+,5,Chris Nix,Lampasas,128.25,172.37,111.13,204.12,487.61,Single-ply,SBD,M
Boys,124.74+,6,Garrett Carlson,Llano,126.44,181.44,108.86,188.24,478.54,Single-ply,SBD,M
Boys,124.74+,7,Colton Center,Llano,131.77,181.44,99.79,188.24,469.47,Single-ply,SBD,M
Boys,124.74+,DQ,Tyler Moore,Comfort,136.64,204.12,,,,Single-ply,SBD,M
